dplyr verb implementations — select.SubstraitCompiler • substrait
…
    Examples

library(dplyr)
#> 
#> Attaching package: ‘dplyr’
#> The following objects are masked from ‘package:stats’:
#> 
#>     filter, lag
#> The following objects are masked from ‘package:base’:
#> 
#>     intersect, setdiff, setequal, union
compiler <- duckdb_substrait_compiler(mtcars)

select(compiler, mpg2 = mpg) %>% collect()
#> # A tibble: 32 × 1
#>     mpg2
#>    <dbl>
#>  1  21  
#>  2  21  
#>  3  22.8
#>  4  21.4
#>  5  18.7
#>  6  18.1
#>  7  14.3
#>  8  24.4
#>  9  22.8
#> 10  19.2
#> # … with 22 more rows
rename(compiler, mpg2 = mpg) %>% collect()
#> # A tibble: 32 × 11
#>     mpg2   cyl  disp    hp  drat    wt  qsec    vs    am  gear  carb
#>    <dbl> <dbl> <dbl> <dbl> <dbl> <dbl> <dbl> <dbl> <dbl> <dbl> <dbl>
#>  1  21       6  160    110  3.9   2.62  16.5     0     1     4     4
#>  2  21       6  160    110  3.9   2.88  17.0     0     1     4     4
#>  3  22.8     4  108     93  3.85  2.32  18.6     1     1     4     1
#>  4  21.4     6  258    110  3.08  3.22  19.4     1     0     3     1
#>  5  18.7     8  360    175  3.15  3.44  17.0     0     0     3     2
#>  6  18.1     6  225    105  2.76  3.46  20.2     1     0     3     1
#>  7  14.3     8  360    245  3.21  3.57  15.8     0     0     3     4
#>  8  24.4     4  147.    62  3.69  3.19  20       1     0     4     2
#>  9  22.8     4  141.    95  3.92  3.15  22.9     1     0     4     2
#> 10  19.2     6  168.   123  3.92  3.44  18.3     1     0     4     4
#> # … with 22 more rows
…
#>  2  21       6 160     110  3.9   2.88  17.0     0     1     4     4
#>  3  22.8     4 108      93  3.85  2.32  18.6     1     1     4     1
#>  4  21.4     6 258     110  3.08  3.22  19.4     1     0     3     1
#>  5  24.4     4 147.     62  3.69  3.19  20       1     0     4     2
#>  6  22.8     4 141.     95  3.92  3.15  22.9     1     0     4     2
#>  7  32.4     4  78.7    66  4.08  2.2   19.5     1     1     4     1
#>  8  30.4     4  75.7    52  4.93  1.62  18.5     1     1     4     2
#>  9  33.9     4  71.1    65  4.22  1.84  19.9     1     1     4     1
#> 10  21.5     4 120.     97  3.7   2.46  20.0     1     0     3     1
#> 11  27.3     4  79      66  4.08  1.94  18.9     1     1     4     1
#> 12  26       4 120.     91  4.43  2.14  16.7     0     1     5     2
#> 13  30.4     4  95.1   113  3.77  1.51  16.9     1     1     5     2
#> 14  21.4     4 121     109  4.11  2.78  18.6     1     1     4     2
mutate(compiler, mpg + 10) %>% collect()
#> # A tibble: 32 × 12
#>      mpg   cyl  disp    hp  drat    wt  qsec    vs    am  gear  carb `mpg + 10`
#>    <dbl> <dbl> <dbl> <dbl> <dbl> <dbl> <dbl> <dbl> <dbl> <dbl> <dbl>      <dbl>
#>  1  21       6  160    110  3.9   2.62  16.5     0     1     4     4       31  
#>  2  21       6  160    110  3.9   2.88  17.0     0     1     4     4       31  
#>  3  22.8     4  108     93  3.85  2.32  18.6     1     1     4     1       32.8
#>  4  21.4     6  258    110  3.08  3.22  19.4     1     0     3     1       31.4
#>  5  18.7     8  360    175  3.15  3.44  17.0     0     0     3     2       28.7
#>  6  18.1     6  225    105  2.76  3.46  20.2     1     0     3     1       28.1
#>  7  14.3     8  360    245  3.21  3.57  15.8     0     0     3     4       24.3
#>  8  24.4     4  147.    62  3.69  3.19  20       1     0     4     2       34.4
#>  9  22.8     4  141.    95  3.92  3.15  22.9     1     0     4     2       32.8
#> 10  19.2     6  168.   123  3.92  3.44  18.3     1     0     4     4       29.2
#> # … with 22 more rows
transmute(compiler, mpg + 10) %>% collect()
#> # A tibble: 32 × 1
#>    `mpg + 10`
#>         <dbl>
#>  1       31  
#>  2       31  
#>  3       32.8
#>  4       31.4
#>  5       28.7
#>  6       28.1
#>  7       24.3
#>  8       34.4
#>  9       32.8
#> 10       29.2
#> # … with 22 more rows
arrange(compiler, desc(mpg)) %>% collect()
#> # A tibble: 32 × 11
#>      mpg   cyl  disp    hp  drat    wt  qsec    vs    am  gear  carb
#>    <dbl> <dbl> <dbl> <dbl> <dbl> <dbl> <dbl> <dbl> <dbl> <dbl> <dbl>
#>  1  33.9     4  71.1    65  4.22  1.84  19.9     1     1     4     1
#>  2  32.4     4  78.7    66  4.08  2.2   19.5     1     1     4     1
#>  3  30.4     4  75.7    52  4.93  1.62  18.5     1     1     4     2
#>  4  30.4     4  95.1   113  3.77  1.51  16.9     1     1     5     2
#>  5  27.3     4  79      66  4.08  1.94  18.9     1     1     4     1
#>  6  26       4 120.     91  4.43  2.14  16.7     0     1     5     2
#>  7  24.4     4 147.     62  3.69  3.19  20       1     0     4     2
#>  8  22.8     4 108      93  3.85  2.32  18.6     1     1     4     1
#>  9  22.8     4 141.     95  3.92  3.15  22.9     1     0     4     2
#> 10  21.5     4 120.     97  3.7   2.46  20.0     1     0     3     1
#> # … with 22 more rows
…
